{
  "core": {
    "type": "text",
    "color": "#80d8ff",
    "tags": [],
    "flags": []
  },
  "contents": {
    "title": "Security",
    "text": "Syntropize allows developers to reduce surface area for vulnerabilities."
  },
  "properties": {
    "cardHeight": 4,
    "cardWidth": 4
  }
}