{
  "core": {
    "type": "text",
    "color": "#80d8ff",
    "tags": [],
    "flags": []
  },
  "contents": {
    "title": "Scale",
    "text": "Reuse of existing infrastructure means that only the novel part of any new feature needs to be implemented, allowing software complexity to scale with size."
  },
  "properties": {
    "cardHeight": 4,
    "cardWidth": 4
  }
}