{
  "core": {
    "type": "text",
    "color": "#80d8ff",
    "tags": [],
    "flags": []
  },
  "contents": {
    "title": "Board-Simple View",
    "text": "View to represent a resource as tiled cards placed on a virtual corkboard. This view can dynamically load different types of cards based on the content."
  },
  "properties": {
    "cardHeight": 4,
    "cardWidth": 4
  }
}