{
  "core": {
    "type": "text",
    "color": "#80d8ff",
    "tags": [],
    "flags": []
  },
  "contents": {
    "title": "Information Reuse",
    "text": "Data disaggregation means that every piece of information can be reused independently in creating different workspaces. Reuse prevents unnecessarily data duplication."
  },
  "properties": {
    "cardHeight": 4,
    "cardWidth": 4
  }
}