{
  "core": {
    "type": "text",
    "color": "#80d8ff",
    "tags": [],
    "flags": []
  },
  "contents": {
    "title": "File-List View",
    "text": "View to present the contents of a resource (think files and folder). This is the fallback view in case all others fail."
  },
  "properties": {
    "cardHeight": 4,
    "cardWidth": 4
  }
}