<?xml version="1.0" encoding="UTF-8" standalone="no"?>
<!-- Created with Inkscape (http://www.inkscape.org/) -->

<svg
   xmlns:dc="http://purl.org/dc/elements/1.1/"
   xmlns:cc="http://creativecommons.org/ns#"
   xmlns:rdf="http://www.w3.org/1999/02/22-rdf-syntax-ns#"
   xmlns:svg="http://www.w3.org/2000/svg"
   xmlns="http://www.w3.org/2000/svg"
   xmlns:sodipodi="http://sodipodi.sourceforge.net/DTD/sodipodi-0.dtd"
   xmlns:inkscape="http://www.inkscape.org/namespaces/inkscape"
   version="1.1"
   width="24"
   height="24"
   id="svg2"
   inkscape:version="0.91 r13725"
   sodipodi:docname="lyx.svg"
   inkscape:export-filename="lyx.png"
   inkscape:export-xdpi="7.7142859"
   inkscape:export-ydpi="7.7142859">
  <metadata
     id="metadata19">
    <rdf:RDF>
      <cc:Work
         rdf:about="">
        <dc:format>image/svg+xml</dc:format>
        <dc:type
           rdf:resource="http://purl.org/dc/dcmitype/StillImage" />
        <dc:title></dc:title>
      </cc:Work>
    </rdf:RDF>
  </metadata>
  <sodipodi:namedview
     pagecolor="#ffffff"
     bordercolor="#666666"
     borderopacity="1"
     objecttolerance="10"
     gridtolerance="10"
     guidetolerance="10"
     inkscape:pageopacity="0"
     inkscape:pageshadow="2"
     inkscape:window-width="1920"
     inkscape:window-height="1017"
     id="namedview17"
     showgrid="false"
     inkscape:zoom="35.333333"
     inkscape:cx="12"
     inkscape:cy="13.132075"
     inkscape:window-x="-8"
     inkscape:window-y="-8"
     inkscape:window-maximized="1"
     inkscape:current-layer="svg2" />
  <defs
     id="defs4">
    <filter
       x="-0.066670969"
       y="-0.11350103"
       width="1.1333419"
       height="1.2270021"
       id="filter3809"
       style="color-interpolation-filters:sRGB">
      <feGaussianBlur
         id="feGaussianBlur3811"
         stdDeviation="13.577266" />
    </filter>
    <filter
       x="-0.12549394"
       y="-0.11496687"
       width="1.2509879"
       height="1.2299337"
       id="filter3874"
       style="color-interpolation-filters:sRGB">
      <feGaussianBlur
         id="feGaussianBlur3876"
         stdDeviation="10.91093" />
    </filter>
    <filter
       id="filter3970"
       style="color-interpolation-filters:sRGB">
      <feGaussianBlur
         id="feGaussianBlur3972"
         stdDeviation="7.6376526" />
    </filter>
    <filter
       id="filter4060"
       style="color-interpolation-filters:sRGB">
      <feGaussianBlur
         id="feGaussianBlur4062"
         stdDeviation="7.6376526" />
    </filter>
  </defs>
  <path
     style="fill:#007fff;fill-opacity:1;fill-rule:evenodd;stroke:#0059b2;stroke-width:0.2;stroke-linecap:butt;stroke-linejoin:miter;stroke-miterlimit:4;stroke-dasharray:none;stroke-opacity:1"
     id="path1388"
     inkscape:connector-curvature="0"
     d="m 4.2163643,15.832912 -3.54951002,-7.7124797 2.85805002,-1.25652 0.0691,-0.0867 2.30488,5.2427497 2.76585,-1.32152 1.24464,2.49139 -5.69305,2.64304 z" />
  <path
     style="fill:#cb3300;fill-opacity:1;fill-rule:evenodd;stroke:#992700;stroke-width:0.2;stroke-linecap:butt;stroke-linejoin:miter;stroke-opacity:1;stroke-miterlimit:4;stroke-dasharray:none"
     id="path1392"
     inkscape:connector-curvature="0"
     d="m 14.450014,5.4990623 3.13464,0.49828 0.71451,1.88479 1.33683,-1.49484 3.43426,0.6066 -2.99634,3.2713097 1.8439,4.74447 -3.6878,-0.25997 -0.71451,-2.57805 -1.61341,2.16643 -2.8811,-0.77992 2.7889,-3.8778997 -1.35988,-4.1812 z" />
  <path
     style="fill:#ffc000;fill-opacity:1;fill-rule:evenodd;stroke:#b28400;stroke-width:0.2;stroke-miterlimit:4;stroke-dasharray:none;stroke-opacity:1"
     id="path1390"
     inkscape:connector-curvature="0"
     d="m 6.6825843,8.0554423 3.5725597,0.45495 1.06024,2.0797697 1.33683,-1.7981297 3.59561,0.43328 -3.29598,4.4195097 -0.8067,4.22453 -3.3420697,-0.49827 0.57621,-3.79125 -2.6967,-5.5243897 z" />
</svg>
