{
  "core": {
    "type": "index",
    "color": "#ccff90",
    "tags": [],
    "flags": []
  },
  "contents": {
    "title": "Plugins",
    "text": "The prototype uses plugins in place of interchangeable programs to provide specific functionality within each functional layer."
  },
  "properties": {
    "cardHeight": 4,
    "cardWidth": 4
  }
}