{
  "core": {
    "type": "text",
    "color": "#80d8ff",
    "tags": [],
    "flags": []
  },
  "contents": {
    "title": "Separation of Corncens",
    "text": "The separation or concerns allows developers to focus on their area of expertise without being encumbered by extraneous concerns and side effects."
  },
  "properties": {
    "cardHeight": 4,
    "cardWidth": 4
  }
}